<?xml version="1.0" encoding="UTF-8" standalone="no"?>
<!-- Created with Inkscape (http://www.inkscape.org/) -->
<svg
    xmlns:inkscape="http://www.inkscape.org/namespaces/inkscape"
    xmlns:rdf="http://www.w3.org/1999/02/22-rdf-syntax-ns#"
    xmlns="http://www.w3.org/2000/svg"
    xmlns:cc="http://creativecommons.org/ns#"
    xmlns:dc="http://purl.org/dc/elements/1.1/"
    xmlns:sodipodi="http://sodipodi.sourceforge.net/DTD/sodipodi-0.dtd"
    xmlns:svg="http://www.w3.org/2000/svg"
    xmlns:ns1="http://sozi.baierouge.fr"
    xmlns:xlink="http://www.w3.org/1999/xlink"
    id="svg2961"
    sodipodi:docname="Neues Dokument 6"
    viewBox="0 0 136.33 196.35"
    version="1.1"
    inkscape:version="0.47 r22583"
  >
  <sodipodi:namedview
      id="base"
      bordercolor="#666666"
      inkscape:pageshadow="2"
      inkscape:window-y="25"
      pagecolor="#ffffff"
      inkscape:window-height="491"
      inkscape:window-maximized="0"
      inkscape:zoom="1.4"
      inkscape:window-x="823"
      showgrid="false"
      borderopacity="1.0"
      inkscape:current-layer="layer1"
      inkscape:cx="125.04792"
      inkscape:cy="98.037538"
      inkscape:window-width="607"
      inkscape:pageopacity="0.0"
      inkscape:document-units="px"
  />
  <g
      id="layer1"
      inkscape:label="Ebene 1"
      inkscape:groupmode="layer"
      transform="translate(-141.16 -437.29)"
    >
    <path
        id="path2844"
        style="fill:#000000"
        d="m209.66 441.41c-3.2743-0.0438-8.0465 0.82702-8.6826 1.8563-0.35191 0.56937-2.0284 0.80907-3.7425 0.53892-1.7044-0.26857-2.8535-0.24871-2.5449 0.0599 0.80149 0.80149-1.3104 3.1437-2.8443 3.1437-0.79377 0-1.0542-0.60437-0.68863-1.5569 0.48629-1.2672 0.17716-1.4145-1.7066-0.80838-1.2653 0.40711-2.8443 0.74371-3.503 0.7485-1.2155 0.01-1.5642 0.94111-1.2874 3.5329 0.0959 0.89808-0.1248 1.0466-0.5988 0.41916-0.9348-1.2374-4.8576-1.5515-5.5389-0.4491-0.27437 0.44395-1.3478 0.57331-2.3952 0.2994s-1.6576-0.86372-1.3772-1.3174c0.28037-0.45366-1.6838 0.29786-4.3413 1.6766-2.6576 1.3788-4.8204 2.8548-4.8204 3.2934s-1.397 1.5229-3.0838 2.3952c-6.0856 3.147-9.3626 7.925-9.3713 13.623-0.004 2.2742 0.46839 5.025 1.0479 6.1078 0.74473 1.3916 0.73404 1.771 0 1.3174-0.57118-0.35301-1.4284-2.026-1.9162-3.7126-0.79632-2.7536-0.89729-2.8094-0.98802-0.65868-0.0807 1.9103-0.27725 2.1042-1.018 0.95808-0.75101-1.1621-0.9462-1.0246-0.95808 0.71857-0.008 1.1856-0.49226 2.1557-1.0778 2.1557-0.71092 0-0.83733-1.1938-0.38922-3.5928 0.36912-1.976 0.4479-3.379 0.17964-3.1138-1.0768 1.0644-3.3446 8.9122-2.9042 10.06 0.25911 0.67519 0.0366 1.5191-0.50898 1.8563-0.55818 0.34497-0.74233 1.9515-0.41916 3.6826 0.81635 4.3729 2.3356 5.6793 1.8862 1.6168-0.43318-3.9159 0.18772-5.9475 1.527-5.1198 0.5949 0.36768 0.69973-0.17579 0.2994-1.4371-0.38343-1.208-0.21752-2.0359 0.38922-2.0359 0.56246 0 1.0409 0.53892 1.0778 1.1976 0.0371 0.65868 0.44533 0.33532 0.8982-0.71857 0.55408-1.2894 0.84408-1.4461 0.89821-0.47904 0.0443 0.79042 0.3709 2.515 0.71856 3.8323 0.56755 2.1506 0.4515 2.2585-0.98802 1.0778-1.3805-1.1322-1.5868-1.0989-1.5868 0.23952 0 0.85494-0.45401 1.5569-0.98803 1.5569-0.572 0-0.38503 1.3868 0.4491 3.3832 0.77876 1.8638 1.0172 3.1285 0.50899 2.8144-0.50822-0.31409-0.92815-0.22643-0.92815 0.20958 0 0.43599 1.1856 1.5267 2.6347 2.4252 1.4491 0.89845 2.1092 1.6626 1.4671 1.6766-0.64559 0.0141-0.9748 0.77955-0.71857 1.7066 0.25489 0.92216-0.0711 0.51268-0.7485-0.8982-1.1967-2.4925-1.3145-2.5038-3.4431-0.89821-1.713 1.2921-2.2108 2.6672-2.3353 6.3773-0.0877 2.6098 0.2179 5.5782 0.68863 6.5868 0.58396 1.2513 0.52418 1.6326-0.17964 1.1976-0.66602-0.41161-0.82439 0.0866-0.47905 1.4072 0.29418 1.125 1.7478 2.741 3.2635 3.5928 1.5157 0.85183 3.0184 2.5306 3.3234 3.7126 0.30496 1.182 0.93296 1.9213 1.3772 1.6467 0.44429-0.27458 1.3064 0.47626 1.9461 1.6766 1.0339 1.9402 1.0119 2.0342-0.32934 0.92815-1.7482-1.4416-2.9004-0.24352-1.6766 1.7365 0.45762 0.74045 0.57178 2.5902 0.26946 4.1018-0.80871 4.0435 4.156 13.787 7.6348 15 1.4958 0.52177 2.6347 1.6101 2.6347 2.5449 0 0.90565 0.21612 1.4306 0.47904 1.1677 0.26293-0.26292-0.27179-4.9595-1.1677-10.449-2.2391-13.72-2.2722-28.348-0.0898-34.192 2.3543-6.3037 7.0016-11.56 12.186-13.802 4.498-1.9458 5.8144-2.3198 11.467-3.2635 3.033-0.50634 5.0381-0.89376 7.3054-1.3772 0.52694-0.11188 1.3892-0.1158 1.9162 0 0.52694 0.11583 2.3812 0.12697 4.1317 0.0299 2.5009-0.13862 3.3025 0.25834 3.7126 1.8264 0.28702 1.0975 0.84838 2.006 1.2575 2.006 3.0006 0 0.17591 8.3137-3.5329 10.389-1.2374 0.6925-1.0543 1.2075 1.2276 3.3234 2.135 1.9797 2.4756 2.7939 1.5569 3.7126-1.2829 1.2829-1.6364 4.0457-0.41917 3.2934 0.41757-0.25807 0.82731 0.28585 0.89821 1.2276 0.0984 1.3058-1.1936 2.0803-5.4491 3.2635-4.8009 1.3348-6.0418 2.2019-8.9222 6.1377-2.3148 3.1631-3.5616 6.0588-3.982 9.3713-1.3584 10.703-2.6671 22.502-2.7246 24.311-0.0232 0.73099-0.86471 1.5371-1.8563 1.7964-2.5187 0.65865-1.7206 3.5917 0.98803 3.6228 1.204 0.0138 2.6343 0.66049 3.1737 1.4371 0.74157 1.0679 1.0996 1.1153 1.4671 0.20958 0.26727-0.65868 0.94033-1.1976 1.497-1.1976 1.2057 0 3.5497 2.8834 3.5928 4.4312 0.0364 1.306-4.2815 2.6375-7.6946 2.3653-1.3798-0.11005-3.1442 0.59171-4.0719 1.6168-1.5832 1.7494-1.4922 1.8268 2.4551 1.976 2.249 0.0851 5.4784-0.25887 7.1856-0.7485 2.5037-0.71805 3.1138-0.6057 3.1138 0.53892 0 1.8292-5.7874 4.2353-8.4731 3.5329-1.1369-0.29731-2.0659-0.10778-2.0659 0.41917 0 0.52694 0.86228 1.1915 1.9162 1.4671s1.9162 1.2397 1.9162 2.1258c0 1.6209 0.14763 1.6012 8.9521 0.11976 0.44584-0.075 1.1939 0.90665 1.6766 2.1557 0.74324 1.9229 0.36884 2.7559-2.4551 5.4192-2.7281 2.573-3.948 3.0763-6.7665 2.8144-3.0545-0.28388-3.3026-0.15229-2.1856 1.1976 2.5914 3.1318 8.3202 4.8652 14.521 4.3713 3.242-0.25826 8.8784-0.55324 12.545-0.62874 5.9276-0.12212 6.8036 0.0902 7.7246 1.9162 0.56965 1.1294 1.6028 2.7462 2.3054 3.5928 0.67623 0.81479-0.26442 2.6946-1.3174 4.3114-1.7816 1.8575-3.9032 4.2439-4.5509 4.9102-0.76837 0.79043-3.5118 3.8084-6.0778 6.7066l-4.6707 5.2695 0.50898-0.47904-2.3353 2.5449c-0.97336 0.88759-2.3735 2.3355-3.9521 4.1018l-4.7306 5.3294 5.1796-5c1.9363-1.8672 3.4653-3.5074 4.2216-4.4611l6.5868-7.2455c2.9093-2.8613 10.397-11.225 11.976-13.323 1.1422-0.94728 3.2127-2.8034 5.9282-5.3294 8.5794-7.9807 21.133-16.856 23.802-16.856 0.97963 0-0.37528 1.6951-3.503 4.4311-5.2991 4.6355-5.5905 7.0362-0.62875 5.1497 1.494-0.56768 3.261-0.82256 3.9222-0.56886 1.7704 0.67935 6.6289-1.6472 7.0958-2.994 0.60059-1.7324 3.9534-1.3136 7.1856 1.1976 0.55125 0.42828-3.9148-4.499-5.8982-7.1557-3.4523-4.6242-3.7021-4.7737-5.7784-3.4132-2.3136 1.5159-5.0587 1.9045-5.1796 0.71856-0.14632-1.4343-0.69036-3.624-1.3174-5.1796-0.45784-1.1359-0.0326-1.7959 1.5569-2.2754 3.3099-0.99862 8.2857-6.1083 9.491-9.7605 0.77114-2.3352 0.76404-4.0358 0-6.2276-0.57793-1.6578-0.77834-2.7544-0.44911-2.4252 0.93252 0.93252 7.0713-6.0021 7.7545-8.7725 0.33618-1.3632 1.3997-4.0645 2.3952-5.988 1.5942-3.0804 2.499-9.0561 1.7665-11.826-0.55543-2.1004 0.0294-5.3687 0.86827-4.8503 0.49054 0.30317 1.1756 0.0481 1.5569-0.56886 0.46473-0.75194 0.28174-0.85505-0.56887-0.32934-0.96846 0.59853-1.0634 0.35166-0.4491-1.0479 1.6512-3.7623 1.668-10.11 0.0299-13.743-1.1976-2.6557-1.47-4.8206-0.98802-8.2934 1.484-10.694-0.79907-21.467-4.5509-21.467-0.92959 0-1.6766-0.45991-1.6766-1.018 0-0.55803 0.49942-0.70532 1.1078-0.32934 0.6698 0.41396 0.84741 0.25524 0.4491-0.38922-0.36176-0.58531-1.1845-0.88095-1.8264-0.65869-0.6418 0.22227-2.0494-0.97027-3.1138-2.6647s-3.5285-3.8413-5.479-4.7605c-1.9505-0.91921-4.1841-2.9112-4.9701-4.4311-1.5154-2.9304-3.208-3.9533-7.485-4.521-1.452-0.19272-4.8308-2.0636-7.485-4.1617-2.8112-2.2221-6.3141-4.0752-8.3832-4.4012-1.9536-0.30786-5.0419-0.83161-6.8862-1.1677-1.8443-0.33606-4.4311-0.64632-5.7485-0.71856-1.3174-0.0722-3.1803-0.50313-4.1317-0.92815-0.54573-0.24377-1.4834-0.34467-2.5749-0.35928zm-21.527 1.1976c-0.68761 0.0483-1.5856 0.35802-2.0958 0.86826-0.36655 0.36654 0.0511 0.65868 0.89821 0.65868 0.84714 0 1.7688-0.38757 2.0659-0.86826 0.3065-0.49592-0.18065-0.70699-0.86827-0.65868zm-15.928 7.2755c0.47762 0 0.63489 0.86228 0.35928 1.9162-0.28015 1.0713-0.0293 1.9162 0.56887 1.9162 0.5884 0 1.0778-0.43115 1.0778-0.95809s0.44711-0.95808 1.018-0.95808 0.87825 0.53892 0.65868 1.1976c-0.21956 0.65868-1.2355 1.1976-2.2455 1.1976s-2.1898 0.43114-2.6347 0.95809c-0.46597 0.55187-0.56752 0.20253-0.23952-0.80839 0.31318-0.96526 0.56887-2.3664 0.56887-3.1138 0-0.74733 0.39065-1.3473 0.86826-1.3473zm18.024 5.8683c0.22812-0.0186 0.15203 0.48966-0.17964 1.5868-0.46859 1.5501-0.30422 2.1036 0.5988 1.9162 0.78326-0.16259 1.3185 0.68568 1.3772 2.2455 0.1112 2.9531-2.0262 3.127-4.0719 0.32934-0.99725-1.3638-1.2874-1.4514-1.2874-0.35928 0 0.78574 0.50539 1.9425 1.1377 2.5748 0.63234 0.63233 0.85566 1.1677 0.47905 1.1677-0.78765 0-4.4853-5.8177-4.491-7.0659-0.002-0.45777 1.5076 0.32872 3.3533 1.7365l3.3533 2.5449-1.1377-2.4551c-0.88369-1.9395-0.8464-2.7334 0.11976-3.6527 0.37189-0.35384 0.61163-0.55773 0.74851-0.56887zm-30.988 4.0419c0.34356-0.0578 0.5988 0.15033 0.5988 0.56886 0 0.55804-0.43114 1.018-0.95809 1.018-0.52694 0-0.95808-0.1868-0.95808-0.41917s0.43114-0.6923 0.95808-1.018c0.13174-0.0814 0.24477-0.13046 0.35929-0.1497zm23.952 0.92814c0.2607-0.0691 0.65511 0.36634 0.92814 1.0778 0.64784 1.6882 0.0765 2.0076-0.86826 0.47904-0.34734-0.562-0.40085-1.2459-0.14971-1.497 0.0314-0.0314 0.0526-0.05 0.0898-0.0599zm-3.6826 0.53892c0.25683 0.0519 0.61274 0.67526 1.0778 1.9162 1.2383 3.3037 1.1095 3.6452-0.5988 1.5868-0.63498-0.7651-1.0136-2.094-0.83833-2.9641 0.0798-0.39619 0.20519-0.57011 0.35928-0.53893zm-7.0659 2.3653c0.25928 0.0878 0.85153 0.85388 1.7365 2.3054 1.1307 1.8544 2.6828 3.1138 3.8324 3.1138 1.0616 0 1.9461 0.49059 1.9461 1.1078 0 0.61719 0.71181 1.9074 1.5868 2.8742 0.87501 0.96687 1.4145 1.9388 1.1976 2.1557-0.6364 0.63639-8.2589-6.4261-9.4012-8.7126-0.98158-1.9647-1.2316-2.9572-0.89821-2.8443zm-6.5569 0.92814c0.10267-0.056 0.3911 0.0265 0.86827 0.20958 0.85187 0.32689 1.7782 1.1964 2.0659 1.9461 0.7158 1.8653 0.26056 1.7072-1.8264-0.59881-0.90956-1.0051-1.2789-1.4635-1.1078-1.5569zm-2.6946 2.0958 2.1557 1.8264c1.1856 1.0038 2.1557 1.9739 2.1557 2.1557 0 0.7667-0.76985 0.19947-2.485-1.8264l-1.8264-2.1557zm18.653 0.98802c0.37005-0.0981 0.65868 0.28675 0.65868 0.95809 0 1.6155-0.30312 1.7625-1.0778 0.50898-0.30318-0.49055-0.17826-1.1305 0.26946-1.4072 0.0559-0.0346 0.0968-0.0459 0.1497-0.0599zm-21.437 4.6407c0.30362-0.0207 0.69302-0.0176 1.1677 0 1.5731 0.0584 2.6679 0.44311 2.4252 0.83832-0.58047 0.94495-2.4178 0.89083-4.012-0.11976-0.63612-0.40324-0.49169-0.65652 0.41916-0.71856zm0.77845 4.521c0.20497-0.0288 0.52084 0.0533 0.92814 0.20958 0.86742 0.33286 4.2566 0.88649 7.5449 1.2275 7.0888 0.73522 8.3554 1.3473 2.7844 1.3473-2.1956 0-3.982 0.43114-3.982 0.95809 0 0.52693-0.57868 0.95808-1.2874 0.95808-0.70875 0-2.0702 0.86228-3.024 1.9162-0.95376 1.0539-1.4365 1.9162-1.0778 1.9162 0.35868 0-0.005 1.2597-0.80839 2.8144-1.6569 3.2042-1.9466 6.2178-0.50898 5.3294 0.52695-0.32567 0.95809 0.069 0.95809 0.89821 0 0.82927-1.3556 2.327-2.994 3.3234-2.5354 1.5419-2.7138 1.8854-1.1976 2.2754 1.3122 0.33759 1.1409 0.48703-0.65868 0.56886-1.3437 0.0611-3.0338 0.65869-3.7725 1.3174-1.1503 1.0257-1.1685 0.92971-0.0299-0.56886 1.1372-1.4968 1.1468-1.8602-0.0299-2.6048-1.1358-0.7187-1.0872-0.88614 0.26946-0.8982 1.6346-0.0146 4.2316-3.5665 3.7725-5.1497-0.13238-0.45652 0.41076-1.8231 1.1976-3.024 1.3132-2.0041 1.2697-2.2152-0.4491-2.6647-2.6532-0.69383-2.3039-2.2078 0.77844-3.4731 1.4491-0.59484 3.6736-1.6939 4.9401-2.4252l2.3054-1.3174-2.7246-0.32934c-1.4894-0.17454-2.8994-0.90407-3.1437-1.6467-0.19117-0.58119-0.13204-0.91015 0.20958-0.95808zm29.97 2.7844c0.62759-0.008 1.4109 0.43114 1.7365 0.95809 0.73514 1.1895 0.40347 1.1895-1.4371 0-0.86351-0.55805-0.98501-0.94948-0.2994-0.95809zm-39.94 28.743c0.0494-0.0494 0.43781 0.24245 1.1976 0.83833 0.92215 0.72319 1.6766 1.4777 1.6766 1.6766 0 0.78854-0.78432 0.27857-2.0359-1.3174-0.59587-0.7598-0.88777-1.1482-0.83832-1.1976zm-4.491 1.3772c0.42378 0.0105 1.4937 0.82517 2.5749 1.976 1.2356 1.3153 1.7946 2.3952 1.2575 2.3952-1.2238 0-4.6181-3.6754-3.982-4.3114 0.0323-0.0323 0.0892-0.0614 0.1497-0.0599zm56.467 6.3174c1.7168-0.0198 2.6347 0.47073 2.6347 1.4072 0 1.8135-1.0434 1.8223-3.4132 0.0299-1.7814-1.3474-1.7452-1.4079 0.77844-1.4371zm-28.204 2.1258c-3.4767 0.0837-9.8178 2.4456-11.108 4.521-1.3691 2.2027-1.2332 2.2866 1.9461 1.0778 1.2961-0.4928 2.9014-0.5242 3.6527-0.0599 1.083 0.66932 0.92383 1.24-0.80839 3.0838-1.1718 1.2474-2.1258 3.004-2.1258 3.8922 0 2.0974 1.5707 2.0555 2.7545-0.0599 0.87477-1.5631 1.0175-1.5448 2.7246 0 1.5991 1.4472 2.0261 1.4627 3.7725 0.23952 1.0867-0.76114 2.2546-1.1287 2.5749-0.80838 0.32029 0.32029 0.8756-0.16071 1.2275-1.0778 0.44518-1.1601-0.19766-2.3188-2.0958-3.8323l-2.7246-2.1856 2.1557-0.68863c2.3688-0.75183 2.3343-2.2134-0.0898-3.7425-0.40178-0.25344-1.054-0.37861-1.8563-0.35928zm26.916 2.2754c0.83414-0.0369 1.576 0.10079 2.1258 0.4491 0.93059 0.5896 0.62077 0.82789-1.1078 0.83833-1.3318 0.008-3.3798 0.70665-4.5509 1.527-1.1711 0.82029-2.1258 1.0911-2.1258 0.5988 0-1.6674 3.1562-3.3024 5.6587-3.4132zm-1.527 3.2335c0.3399 0.0305 0.39242 0.4925 0.0299 1.4371-0.78817 2.0539 2.2628 2.9011 5.7784 1.6168 2.7057-0.98851 2.8306-0.95256 1.1377 0.32934-1.0229 0.77456-2.4241 1.461-3.1138 1.527-0.68971 0.0659-1.7804 0.1736-2.3952 0.23952-0.61477 0.0659-1.2774 0.65868-1.497 1.3174-0.6772 2.0316 5.7416 1.396 10.569-1.0479 4.5584-2.3078 6.0531-1.7998 4.3413 1.527-0.48012 0.93303-0.62065 2.1449-0.29941 2.6647 0.32124 0.51977-0.0743 1.1809-0.8982 1.497-0.82382 0.31612-1.497 1.3977-1.497 2.3952s-0.48638 1.8263-1.0778 1.8263c-0.69916 0-0.61536 0.55051 0.23952 1.5868 1.1985 1.4529 1.1122 1.4926-0.95808 0.38922-1.2492-0.66579-2.0392-0.837-1.7665-0.38922 0.27277 0.44778-0.56328 1.5682-1.8264 2.515-1.6449 1.233-2.2845 1.3689-2.3054 0.47905-0.0176-0.75106-0.42758-0.56453-1.018 0.4491-2.0522 3.5234-3.5038 1.8702-6.6168-7.515l-2.2455-6.8264 2.1258-2.994c1.3876-1.9488 2.7269-3.0747 3.2934-3.024zm-27.186 1.976c1.2902 0.0653 1.3013 0.16843 0.0599 0.62875-0.79042 0.29306-2.2994 0.92236-3.3533 1.4072-1.8855 0.86737-1.8899 0.86733-0.0599-0.5988 1.0229-0.8195 2.5318-1.4787 3.3533-1.4371zm3.982 7.3054c-0.3951 0.0445-0.92063 0.18915-1.5569 0.47905-1.6983 0.77379-2.0637 1.3096-1.2276 1.8264 0.65597 0.4054 1.7488 0.29186 2.4252-0.26946 1.5742-1.3065 1.5446-2.1693 0.35928-2.0359zm94.282 55.958c-2.8537-0.0924-42.522 19.127-47.515 23.024-2.1803 1.7019-2.0859 1.6898 2.0359-0.0898 2.3998-1.0361 8.2202-4.0456 12.934-6.7066 12.255-6.9176 23.936-12.524 30.09-14.461 4.3961-1.3836 4.8303-1.6895 2.4551-1.7665zm-73.024 7.8443c-0.27657-0.10796 0.24414 1.5913 2.1258 6.018 0.74711 1.7576-0.11591 4.5125-1.2874 7.2455-1.011 2.3585-2.104 6.1872-2.4252 8.533-0.0597 0.43672-0.18421 1.0631-0.32935 1.7365-0.9782 2.8809-2.1516 6.7663-2.1258 7.3952 0.046 1.1161 0.29295 1.3631 0.5988 0.5988 0.13444-0.33602 0.87032-2.9111 1.5569-5.479 1.1344-2.9543 2.4709-6.3511 3.2635-8.1138 2.5612-5.6957 2.6764-10.104 1.2874-13.084-1.3114-2.8138-2.3881-4.7424-2.6647-4.8503zm-1.1377 0.65868c-0.15642 0.0112-0.5535 0.23935-1.2874 0.71857-0.65868 0.43008-2.8144 1.765-4.7904 2.994-0.8057 0.5011-1.5247 0.985-2.1258 1.4072-0.13601 0.0955-0.29899 0.21181-0.41916 0.2994l-6.1677 4.3114-0.11976 0.0599c-0.11173 0.0542-0.24457 0.15602-0.41916 0.2994-0.56889 0.4672-1.4932 1.3984-3.024 3.024l-1.527 2.0659c-1.1853 1.3374-2.8339 3.3212-3.2036 4.012-0.17455 0.32618-0.75215 1.25-1.2275 2.0359-1.7443 2.2493-4.9294 6.4846-5.9581 7.6048-1.2669 1.3795-1.7383 2.485-1.0778 2.485 0.65174 0 2.573-2.2016 4.2814-4.8802 0.39581-0.62057 0.87036-1.4156 1.3473-2.1856 1.1092-1.3899 3.1698-4.2695 3.5928-5.0599 0.31725-0.59281 1.4129-2.1556 2.3054-3.4431l1.7665-1.9162c1.2121-0.94043 2.2227-1.8841 2.8743-2.5748l7.3653-5.03c0.91012-0.48229 2.1069-1.2963 3.6826-2.4551 2.7216-2.0015 4.601-3.8061 4.1318-3.7725z"
    />
  </g
  >
  <metadata
    >
    <rdf:RDF
      >
      <cc:Work
        >
        <dc:format
          >image/svg+xml</dc:format
        >
        <dc:type
            rdf:resource="http://purl.org/dc/dcmitype/StillImage"
        />
        <cc:license
            rdf:resource="http://creativecommons.org/licenses/publicdomain/"
        />
        <dc:publisher
          >
          <cc:Agent
              rdf:about="http://openclipart.org/"
            >
            <dc:title
              >Openclipart</dc:title
            >
          </cc:Agent
          >
        </dc:publisher
        >
        <dc:title
          >rosa luxemburg</dc:title
        >
        <dc:date
          >2011-08-08T10:12:07</dc:date
        >
        <dc:description
        />
        <dc:source
          >https://openclipart.org/detail/154321/rosa-luxemburg-by-worker</dc:source
        >
        <dc:creator
          >
          <cc:Agent
            >
            <dc:title
              >worker</dc:title
            >
          </cc:Agent
          >
        </dc:creator
        >
        <dc:subject
          >
          <rdf:Bag
            >
            <rdf:li
              >Rozaliav Luksenburg</rdf:li
            >
            <rdf:li
              >anti</rdf:li
            >
            <rdf:li
              >capitalism</rdf:li
            >
            <rdf:li
              >class</rdf:li
            >
            <rdf:li
              >communism</rdf:li
            >
            <rdf:li
              >famous-people</rdf:li
            >
            <rdf:li
              >kpd</rdf:li
            >
            <rdf:li
              >luxemburg</rdf:li
            >
            <rdf:li
              >marxist</rdf:li
            >
            <rdf:li
              >militarism</rdf:li
            >
            <rdf:li
              >revolution</rdf:li
            >
            <rdf:li
              >rosa</rdf:li
            >
            <rdf:li
              >socialism</rdf:li
            >
            <rdf:li
              >unite</rdf:li
            >
            <rdf:li
              >workers</rdf:li
            >
            <rdf:li
              >working</rdf:li
            >
          </rdf:Bag
          >
        </dc:subject
        >
      </cc:Work
      >
      <cc:License
          rdf:about="http://creativecommons.org/licenses/publicdomain/"
        >
        <cc:permits
            rdf:resource="http://creativecommons.org/ns#Reproduction"
        />
        <cc:permits
            rdf:resource="http://creativecommons.org/ns#Distribution"
        />
        <cc:permits
            rdf:resource="http://creativecommons.org/ns#DerivativeWorks"
        />
      </cc:License
      >
    </rdf:RDF
    >
  </metadata
  >
</svg
>
